<?xml version="1.0" encoding="UTF-8"?>
<svg width="23px" height="23px" viewBox="0 0 23 23" version="1.1" xmlns="http://www.w3.org/2000/svg" xmlns:xlink="http://www.w3.org/1999/xlink">
    <!-- Generator: Sketch 52.6 (67491) - http://www.bohemiancoding.com/sketch -->
    <title>Group 12</title>
    <desc>Created with Sketch.</desc>
    <g id="Page-1" stroke="none" stroke-width="1" fill="none" fill-rule="evenodd" stroke-linecap="round">
        <g id="Group-12" stroke="#13B7A3" stroke-width="1.2">
            <polyline id="Stroke-4" stroke-linejoin="round" points="20.0222 5.7454 11.8842 14.1684 8.4302 10.8054"></polyline>
            <path d="M16.1712,3.4031 L5.8892,3.5311 C4.6792,3.5441 3.7072,4.5341 3.7162,5.7451 L3.8092,17.3051 C3.8182,18.5181 4.8122,19.4941 6.0252,19.4831 L17.5092,19.3741 C18.7252,19.3621 19.7002,18.3641 19.6842,17.1471 L19.5872,12.4431" id="Stroke-6"></path>
            <path d="M19.4934,22.0823 C21.1244,22.0663 22.4334,20.7283 22.4104,19.0963" id="Stroke-8"></path>
            <path d="M3.9046,0.8293 C2.2806,0.8463 0.9766,2.1743 0.9896,3.7983" id="Stroke-10"></path>
        </g>
    </g>
</svg>