<?xml version="1.0" encoding="utf-8"?>
<!-- Generator: Adobe Illustrator 19.0.0, SVG Export Plug-In . SVG Version: 6.00 Build 0)  -->
<svg version="1.1" id="Layer_1" xmlns="http://www.w3.org/2000/svg" xmlns:xlink="http://www.w3.org/1999/xlink" x="0px" y="0px"
	 viewBox="0 0 27 27" style="enable-background:new 0 0 27 27;" xml:space="preserve">
<style type="text/css">
	.st0{fill:#FFFFFF;}
</style>
<path id="XMLID_2_" class="st0" d="M-90.2,455L-90.2,455c-6.3,0-11.5,5.2-11.5,11.5c0,2.5,0.8,4.8,2.2,6.7l-1.4,4.3l4.4-1.4
	c1.8,1.2,4,1.9,6.3,1.9c6.3,0,11.5-5.2,11.5-11.5S-83.9,455-90.2,455z M-83.5,471.2c-0.3,0.8-1.4,1.4-2.3,1.6
	c-0.6,0.1-1.4,0.2-4-0.9c-3.4-1.4-5.6-4.8-5.7-5.1c-0.2-0.2-1.4-1.8-1.4-3.5c0-1.7,0.8-2.5,1.2-2.8c0.3-0.3,0.7-0.4,1.2-0.4
	c0.1,0,0.3,0,0.4,0c0.3,0,0.5,0,0.7,0.6c0.3,0.7,1,2.3,1,2.5c0.1,0.2,0.2,0.4,0,0.6c-0.1,0.2-0.2,0.3-0.4,0.5s-0.3,0.3-0.5,0.6
	c-0.2,0.2-0.3,0.4-0.1,0.7c0.2,0.3,0.9,1.4,1.9,2.3c1.3,1.1,2.3,1.5,2.7,1.7c0.3,0.1,0.6,0.1,0.8-0.1c0.3-0.3,0.6-0.7,0.9-1.2
	c0.2-0.3,0.5-0.4,0.8-0.3c0.3,0.1,2,0.9,2.3,1.1c0.3,0.2,0.6,0.3,0.6,0.4C-83.2,469.8-83.2,470.5-83.5,471.2z"/>
<path id="XMLID_30_" class="st0" d="M13.5,2L13.5,2C7.2,2,2,7.2,2,13.5c0,2.5,0.8,4.8,2.2,6.7l-1.4,4.3l4.4-1.4
	c1.8,1.2,4,1.9,6.3,1.9C19.8,25,25,19.8,25,13.5S19.8,2,13.5,2z M20.2,18.2c-0.3,0.8-1.4,1.4-2.3,1.6c-0.6,0.1-1.4,0.2-4-0.9
	c-3.4-1.4-5.6-4.8-5.7-5.1c-0.2-0.2-1.4-1.8-1.4-3.5C6.8,8.8,7.7,8,8,7.7c0.3-0.3,0.7-0.4,1.2-0.4c0.1,0,0.3,0,0.4,0
	c0.3,0,0.5,0,0.7,0.6c0.3,0.7,1,2.3,1,2.5c0.1,0.2,0.2,0.4,0,0.6c-0.1,0.2-0.2,0.3-0.4,0.5s-0.3,0.3-0.5,0.6
	c-0.2,0.2-0.3,0.4-0.1,0.7c0.2,0.3,0.9,1.4,1.9,2.3c1.3,1.1,2.3,1.5,2.7,1.7c0.3,0.1,0.6,0.1,0.8-0.1c0.3-0.3,0.6-0.7,0.9-1.2
	c0.2-0.3,0.5-0.4,0.8-0.3c0.3,0.1,2,0.9,2.3,1.1c0.3,0.2,0.6,0.3,0.6,0.4C20.5,16.8,20.5,17.5,20.2,18.2z"/>
</svg>
