<?xml version="1.0" encoding="utf-8"?>
<!-- Generator: Adobe Illustrator 19.0.0, SVG Export Plug-In . SVG Version: 6.00 Build 0)  -->
<svg version="1.1" id="Layer_1" xmlns="http://www.w3.org/2000/svg" xmlns:xlink="http://www.w3.org/1999/xlink" x="0px" y="0px"
	 viewBox="0 0 15 15" style="enable-background:new 0 0 15 15;" xml:space="preserve">
<style type="text/css">
	.st0{fill:#43D6C8;}
</style>
<path class="st0" d="M0.5,11l0,2.9c0,0.2,0.1,0.3,0.2,0.4c0.1,0.1,0.3,0.2,0.4,0.2l2.9,0c0.2,0,0.3-0.1,0.4-0.2l9.9-9.9
	c0.2-0.2,0.2-0.6,0-0.9l-2.8-2.9c-0.2-0.2-0.6-0.2-0.9,0l-2,2l-7.9,7.9C0.6,10.7,0.5,10.8,0.5,11L0.5,11z M11.1,2l2,2l-1.1,1.1l-2-2
	L11.1,2z M1.7,11.3L9.1,4l2,2l-7.3,7.3l-2,0L1.7,11.3z M1.7,11.3"/>
</svg>
